^C:\LUCRU\FACULTATE\AN_2\SEM_2\SIEMENS\CURS_2\TEMA_2\TEMA_2\EXERCISE1_DYNAMICLIBRARY1\DYNAMICLIB1.CPP
C:\LUCRU\FACULTATE\AN_2\SEM_2\SIEMENS\CURS_2\TEMA_2\TEMA_2\EXERCISE1_DYNAMICLIBRARY1\DEBUG\VC141.PDB
C:\LUCRU\FACULTATE\AN_2\SEM_2\SIEMENS\CURS_2\TEMA_2\TEMA_2\EXERCISE1_DYNAMICLIBRARY1\DEBUG\VC141.IDB
C:\LUCRU\FACULTATE\AN_2\SEM_2\SIEMENS\CURS_2\TEMA_2\TEMA_2\EXERCISE1_DYNAMICLIBRARY1\DEBUG\DYNAMICLIB1.OBJ
