^C:\LUCRU\FACULTATE\AN_2\SEM_2\SIEMENS\CURS_2\TEMA_2\TEMA_2\TEMA_2\STDAFX.CPP
/c /ZI /nologo /W3 /WX- /diagnostics:classic /sdl /Od /Oy- /D WIN32 /D _DEBUG /D _CONSOLE /D _UNICODE /D UNICODE /Gm /EHsc /RTC1 /MDd /GS /fp:precise /permissive- /Zc:wchar_t /Zc:forScope /Zc:inline /Yc"stdafx.h" /Fp"DEBUG\TEMA_2.PCH" /Fo"DEBUG\\" /Fd"DEBUG\VC141.PDB" /Gd /TP /analyze- C:\LUCRU\FACULTATE\AN_2\SEM_2\SIEMENS\CURS_2\TEMA_2\TEMA_2\TEMA_2\STDAFX.CPP
^C:\LUCRU\FACULTATE\AN_2\SEM_2\SIEMENS\CURS_2\TEMA_2\TEMA_2\TEMA_2\TEMA_2.CPP
/c /ZI /nologo /W3 /WX- /diagnostics:classic /sdl /Od /Oy- /D WIN32 /D _DEBUG /D _CONSOLE /D _UNICODE /D UNICODE /Gm /EHsc /RTC1 /MDd /GS /fp:precise /permissive- /Zc:wchar_t /Zc:forScope /Zc:inline /Yu"stdafx.h" /Fp"DEBUG\TEMA_2.PCH" /Fo"DEBUG\\" /Fd"DEBUG\VC141.PDB" /Gd /TP /analyze- C:\LUCRU\FACULTATE\AN_2\SEM_2\SIEMENS\CURS_2\TEMA_2\TEMA_2\TEMA_2\TEMA_2.CPP
