^C:\LUCRU\FACULTATE\AN_2\SEM_2\SIEMENS\CURS_2\TEMA_2\TEMA_2\TEMA_2\DEBUG\STDAFX.OBJ|C:\LUCRU\FACULTATE\AN_2\SEM_2\SIEMENS\CURS_2\TEMA_2\TEMA_2\TEMA_2\DEBUG\TEMA_2.OBJ
C:\LUCRU\FACULTATE\AN_2\SEM_2\SIEMENS\CURS_2\TEMA_2\TEMA_2\DEBUG\TEMA_2.ILK
C:\LUCRU\FACULTATE\AN_2\SEM_2\SIEMENS\CURS_2\TEMA_2\TEMA_2\DEBUG\TEMA_2.EXE
C:\LUCRU\FACULTATE\AN_2\SEM_2\SIEMENS\CURS_2\TEMA_2\TEMA_2\DEBUG\TEMA_2.PDB
