^C:\LUCRU\FACULTATE\AN_2\SEM_2\SIEMENS\CURS_2\TEMA_2\TEMA_2\EXERCISE1_DYNAMICLIBRARY2\DYNAMICLIB2.CPP
C:\LUCRU\FACULTATE\AN_2\SEM_2\SIEMENS\CURS_2\TEMA_2\TEMA_2\EXERCISE1_DYNAMICLIBRARY2\DEBUG\VC141.PDB
C:\LUCRU\FACULTATE\AN_2\SEM_2\SIEMENS\CURS_2\TEMA_2\TEMA_2\EXERCISE1_DYNAMICLIBRARY2\DEBUG\VC141.IDB
C:\LUCRU\FACULTATE\AN_2\SEM_2\SIEMENS\CURS_2\TEMA_2\TEMA_2\EXERCISE1_DYNAMICLIBRARY2\DEBUG\DYNAMICLIB2.OBJ
